…
# Question 3

## Part A

This question is written in a way that has me confused. I am unsure if
we are supposed to get *each* events’ 95th percentile or simply for
Athletics’ events as a whole. In the case of each event individually, it
is given by the following table.

    ## # A tibble: 27 x 2
    ##    event                                       p0.95
    ##    <chr>                                       <int>
    ##  1 Athletics Women's 1,500 metres                172
    ##  2 Athletics Women's 10 kilometres Walk          170
    ##  3 Athletics Women's 10,000 metres               170
    ##  4 Athletics Women's 100 metres                  182
    ##  5 Athletics Women's 100 metres Hurdles          178
    ##  6 Athletics Women's 20 kilometres Walk          173
    ##  7 Athletics Women's 200 metres                  182
    ##  8 Athletics Women's 3,000 metres                170
    ##  9 Athletics Women's 3,000 metres Steeplechase   178
    ## 10 Athletics Women's 4 x 100 metres Relay        182
    ## # ... with 17 more rows
…
